EESchema Schematic File Version 4
LIBS:BlasterDAC-cache
EELAYER 26 0
EELAYER END
$Descr A4 11693 8268
encoding utf-8
Sheet 1 1
Title ""
Date ""
Rev ""
Comp ""
Comment1 ""
Comment2 ""
Comment3 ""
Comment4 ""
$EndDescr
$Comp
L symbols:PCM2706CPJT U?
U 1 1 5BDD29FE
P 1750 3900
F 0 "U?" H 3150 4287 60  0000 C CNN
F 1 "PCM2706CPJT" H 3150 4181 60  0000 C CNN
F 2 "PJT32" H 3150 4140 60  0001 C CNN
F 3 "" H 1750 3900 60  0000 C CNN
	1    1750 3900
	1    0    0    -1  
$EndComp
$Comp
L power:GND #PWR?
U 1 1 5BDD3562
P 850 1700
F 0 "#PWR?" H 850 1450 50  0001 C CNN
F 1 "GND" H 855 1527 50  0000 C CNN
F 2 "" H 850 1700 50  0001 C CNN
F 3 "" H 850 1700 50  0001 C CNN
	1    850  1700
	1    0    0    -1  
$EndComp
$Comp
L Device:R_US R3
U 1 1 5BDD38FF
P 2050 2450
F 0 "R3" H 1800 2500 50  0000 L CNN
F 1 "5.1k" H 1800 2400 50  0000 L CNN
F 2 "" V 2090 2440 50  0001 C CNN
F 3 "~" H 2050 2450 50  0001 C CNN
	1    2050 2450
	1    0    0    -1  
$EndComp
$Comp
L Device:R_US R4
U 1 1 5BDD3C60
P 2150 2450
F 0 "R4" H 2218 2496 50  0000 L CNN
F 1 "5.1k" H 2218 2405 50  0000 L CNN
F 2 "" V 2190 2440 50  0001 C CNN
F 3 "~" H 2150 2450 50  0001 C CNN
	1    2150 2450
	1    0    0    -1  
$EndComp
$Comp
L Connector:USB_C_Receptacle_USB2.0 J?
U 1 1 5BDD32A7
P 1750 1700
F 0 "J?" V 1809 2430 50  0000 L CNN
F 1 "USB_C_Receptacle_USB2.0" V 1900 2430 50  0000 L CNN
F 2 "" H 1900 1700 50  0001 C CNN
F 3 "https://www.usb.org/sites/default/files/documents/usb_type-c.zip" H 1900 1700 50  0001 C CNN
	1    1750 1700
	0    1    1    0   
$EndComp
Wire Wire Line
	850  1400 850  1700
NoConn ~ 1150 2300
NoConn ~ 1250 2300
Wire Wire Line
	1550 2300 1650 2300
Wire Wire Line
	1750 2300 1850 2300
$Comp
L power:GND #PWR?
U 1 1 5BDD4895
P 2050 2600
F 0 "#PWR?" H 2050 2350 50  0001 C CNN
F 1 "GND" H 2055 2427 50  0000 C CNN
F 2 "" H 2050 2600 50  0001 C CNN
F 3 "" H 2050 2600 50  0001 C CNN
	1    2050 2600
	1    0    0    -1  
$EndComp
Wire Wire Line
	2150 2600 2050 2600
Connection ~ 2050 2600
Wire Wire Line
	4700 4800 4550 4800
Wire Wire Line
	4800 4900 4550 4900
Wire Wire Line
	4800 3200 4800 4900
Connection ~ 5900 2350
$Comp
L power:GND #PWR?
U 1 1 5BDD664D
P 5900 2600
F 0 "#PWR?" H 5900 2350 50  0001 C CNN
F 1 "GND" H 5905 2427 50  0000 C CNN
F 2 "" H 5900 2600 50  0001 C CNN
F 3 "" H 5900 2600 50  0001 C CNN
	1    5900 2600
	1    0    0    -1  
$EndComp
$Comp
L power:+5V #PWR?
U 1 1 5BDD6710
P 6400 1800
F 0 "#PWR?" H 6400 1650 50  0001 C CNN
F 1 "+5V" H 6415 1973 50  0000 C CNN
F 2 "" H 6400 1800 50  0001 C CNN
F 3 "" H 6400 1800 50  0001 C CNN
	1    6400 1800
	1    0    0    -1  
$EndComp
Wire Wire Line
	5400 2050 5450 2050
Wire Wire Line
	5400 2350 5900 2350
Connection ~ 1650 2300
Connection ~ 1750 2300
Connection ~ 850  1700
$Comp
L power:VBUS #PWR?
U 1 1 5C3A313D
P 2650 2100
F 0 "#PWR?" H 2650 1950 50  0001 C CNN
F 1 "VBUS" H 2665 2273 50  0000 C CNN
F 2 "" H 2650 2100 50  0001 C CNN
F 3 "" H 2650 2100 50  0001 C CNN
	1    2650 2100
	1    0    0    -1  
$EndComp
Wire Wire Line
	2350 2300 2650 2300
Wire Wire Line
	2650 2300 2650 2100
$Comp
L power:VBUS #PWR?
U 1 1 5C3A3797
P 5400 1800
F 0 "#PWR?" H 5400 1650 50  0001 C CNN
F 1 "VBUS" H 5415 1973 50  0000 C CNN
F 2 "" H 5400 1800 50  0001 C CNN
F 3 "" H 5400 1800 50  0001 C CNN
	1    5400 1800
	1    0    0    -1  
$EndComp
Wire Wire Line
	5400 1800 5400 2050
Wire Wire Line
	6400 1800 6400 2050
$Comp
L power:+5V #PWR?
U 1 1 5C3A4590
P 4900 4700
F 0 "#PWR?" H 4900 4550 50  0001 C CNN
F 1 "+5V" H 4800 4850 50  0000 L CNN
F 2 "" H 4900 4700 50  0001 C CNN
F 3 "" H 4900 4700 50  0001 C CNN
	1    4900 4700
	1    0    0    -1  
$EndComp
Wire Wire Line
	4550 4700 4900 4700
Wire Wire Line
	5900 2350 5900 2600
Wire Wire Line
	4700 3300 4700 4450
Wire Wire Line
	1650 3300 4700 3300
Wire Wire Line
	1750 3200 4800 3200
$Comp
L power:GND #PWR?
U 1 1 5C3AB38A
P 850 4100
F 0 "#PWR?" H 850 3850 50  0001 C CNN
F 1 "GND" H 855 3927 50  0000 C CNN
F 2 "" H 850 4100 50  0001 C CNN
F 3 "" H 850 4100 50  0001 C CNN
	1    850  4100
	1    0    0    -1  
$EndComp
$Comp
L Device:CP1 C2
U 1 1 5C3ABF9F
P 6400 2200
F 0 "C2" H 6515 2246 50  0000 L CNN
F 1 "10uF" H 6515 2155 50  0000 L CNN
F 2 "" H 6400 2200 50  0001 C CNN
F 3 "~" H 6400 2200 50  0001 C CNN
	1    6400 2200
	1    0    0    -1  
$EndComp
$Comp
L dk_Ferrite-Beads-and-Chips:BLM18PG121SN1D 220ohm
U 1 1 5BDD8731
P 5650 2050
F 0 "220ohm" H 5650 2337 60  0000 C CNN
F 1 "BLM18PG121SN1D" H 5650 2231 60  0000 C CNN
F 2 "digikey-footprints:0603" H 5850 2250 60  0001 L CNN
F 3 "https://www.murata.com/en-us/products/productdata/8796738650142/ENFA0003.pdf" H 5850 2350 60  0001 L CNN
F 4 "490-1037-1-ND" H 5850 2450 60  0001 L CNN "Digi-Key_PN"
F 5 "BLM18PG121SN1D" H 5850 2550 60  0001 L CNN "MPN"
F 6 "Filters" H 5850 2650 60  0001 L CNN "Category"
F 7 "Ferrite Beads and Chips" H 5850 2750 60  0001 L CNN "Family"
F 8 "https://www.murata.com/en-us/products/productdata/8796738650142/ENFA0003.pdf" H 5850 2850 60  0001 L CNN "DK_Datasheet_Link"
F 9 "/product-detail/en/murata-electronics-north-america/BLM18PG121SN1D/490-1037-1-ND/584485" H 5850 2950 60  0001 L CNN "DK_Detail_Page"
F 10 "FERRITE BEAD 120 OHM 0603 1LN" H 5850 3050 60  0001 L CNN "Description"
F 11 "Murata Electronics North America" H 5850 3150 60  0001 L CNN "Manufacturer"
F 12 "Active" H 5850 3250 60  0001 L CNN "Status"
	1    5650 2050
	1    0    0    -1  
$EndComp
Wire Wire Line
	5850 2050 5900 2050
$Comp
L Device:C C0
U 1 1 5C3ACC97
P 5400 2200
F 0 "C0" H 5515 2246 50  0000 L CNN
F 1 "10nF" H 5515 2155 50  0000 L CNN
F 2 "" H 5438 2050 50  0001 C CNN
F 3 "~" H 5400 2200 50  0001 C CNN
	1    5400 2200
	1    0    0    -1  
$EndComp
Connection ~ 5400 2050
$Comp
L Device:C C1
U 1 1 5C3ACD17
P 5900 2200
F 0 "C1" H 6015 2246 50  0000 L CNN
F 1 "100nF" H 6015 2155 50  0000 L CNN
F 2 "" H 5938 2050 50  0001 C CNN
F 3 "~" H 5900 2200 50  0001 C CNN
	1    5900 2200
	1    0    0    -1  
$EndComp
Connection ~ 6400 2050
Wire Wire Line
	5900 2350 6400 2350
Wire Wire Line
	5900 2050 6400 2050
Connection ~ 5900 2050
$Comp
L Device:Crystal Y0
U 1 1 5C3AE8D9
P 1300 6500
F 0 "Y0" H 1300 6768 50  0000 C CNN
F 1 "12-MHz Crystal" H 1300 6677 50  0000 C CNN
F 2 "" H 1300 6500 50  0001 C CNN
F 3 "~" H 1300 6500 50  0001 C CNN
	1    1300 6500
	1    0    0    -1  
$EndComp
$Comp
L Device:C C4
U 1 1 5C3AF7DC
P 1600 7100
F 0 "C4" H 1715 7146 50  0000 L CNN
F 1 "10-30pF" H 1715 7055 50  0000 L CNN
F 2 "" H 1638 6950 50  0001 C CNN
F 3 "~" H 1600 7100 50  0001 C CNN
	1    1600 7100
	1    0    0    -1  
$EndComp
$Comp
L Device:C C3
U 1 1 5C3AF86E
P 1000 7100
F 0 "C3" H 1115 7146 50  0000 L CNN
F 1 "10-30pF" H 1115 7055 50  0000 L CNN
F 2 "" H 1038 6950 50  0001 C CNN
F 3 "~" H 1000 7100 50  0001 C CNN
	1    1000 7100
	1    0    0    -1  
$EndComp
$Comp
L power:GND #PWR?
U 1 1 5C3B0741
P 1300 7350
F 0 "#PWR?" H 1300 7100 50  0001 C CNN
F 1 "GND" H 1305 7177 50  0000 C CNN
F 2 "" H 1300 7350 50  0001 C CNN
F 3 "" H 1300 7350 50  0001 C CNN
	1    1300 7350
	1    0    0    -1  
$EndComp
Wire Wire Line
	1750 5100 1600 5100
Wire Wire Line
	1600 5100 1600 6500
Connection ~ 1600 6500
Wire Wire Line
	1750 5000 1000 5000
Wire Wire Line
	1000 5000 1000 6500
Connection ~ 1000 6500
Wire Wire Line
	1000 6500 1000 6850
Wire Wire Line
	1600 6500 1600 6850
Wire Wire Line
	1300 7350 1300 7250
Connection ~ 1300 7250
Wire Wire Line
	1300 7250 1600 7250
Wire Wire Line
	1000 7250 1300 7250
Connection ~ 1600 6850
Wire Wire Line
	1600 6850 1600 6950
Connection ~ 1000 6850
Wire Wire Line
	1000 6850 1000 6950
Wire Wire Line
	1000 6500 1150 6500
Wire Wire Line
	1450 6500 1600 6500
$Comp
L power:GND #PWR?
U 1 1 5C3C3742
P 6250 5200
F 0 "#PWR?" H 6250 4950 50  0001 C CNN
F 1 "GND" H 6255 5027 50  0000 C CNN
F 2 "" H 6250 5200 50  0001 C CNN
F 3 "" H 6250 5200 50  0001 C CNN
	1    6250 5200
	1    0    0    -1  
$EndComp
$Comp
L Device:C C5
U 1 1 5C3C3B75
P 6000 4400
F 0 "C5" V 5950 4200 50  0000 C CNN
F 1 "1uF" V 6050 4200 50  0000 C CNN
F 2 "" H 6038 4250 50  0001 C CNN
F 3 "~" H 6000 4400 50  0001 C CNN
	1    6000 4400
	0    1    1    0   
$EndComp
Wire Wire Line
	4550 4500 6250 4500
Wire Wire Line
	5850 4400 4550 4400
Wire Wire Line
	6250 4400 6150 4400
$Comp
L Device:C C6
U 1 1 5C3C66E9
P 7150 4600
F 0 "C6" H 7035 4554 50  0000 R CNN
F 1 "0.022uF" H 7035 4645 50  0000 R CNN
F 2 "" H 7188 4450 50  0001 C CNN
F 3 "~" H 7150 4600 50  0001 C CNN
	1    7150 4600
	-1   0    0    1   
$EndComp
$Comp
L Device:C C7
U 1 1 5C3C6753
P 7750 4600
F 0 "C7" H 7635 4554 50  0000 R CNN
F 1 "0.022uF" H 7635 4645 50  0000 R CNN
F 2 "" H 7788 4450 50  0001 C CNN
F 3 "~" H 7750 4600 50  0001 C CNN
	1    7750 4600
	-1   0    0    1   
$EndComp
$Comp
L Device:CP1 C8
U 1 1 5C3C67D1
P 8450 3950
F 0 "C8" V 8702 3950 50  0000 C CNN
F 1 "100uF" V 8611 3950 50  0000 C CNN
F 2 "" H 8450 3950 50  0001 C CNN
F 3 "~" H 8450 3950 50  0001 C CNN
	1    8450 3950
	0    -1   -1   0   
$EndComp
$Comp
L Device:CP1 C9
U 1 1 5C3C688D
P 8450 4300
F 0 "C9" V 8290 4300 50  0000 C CNN
F 1 "100uF" V 8199 4300 50  0000 C CNN
F 2 "" H 8450 4300 50  0001 C CNN
F 3 "~" H 8450 4300 50  0001 C CNN
	1    8450 4300
	0    -1   -1   0   
$EndComp
$Comp
L Device:CP1 C10
U 1 1 5C3C68D1
P 9400 4300
F 0 "C10" V 9560 4300 50  0000 C CNN
F 1 "1uF" V 9651 4300 50  0000 C CNN
F 2 "" H 9400 4300 50  0001 C CNN
F 3 "~" H 9400 4300 50  0001 C CNN
	1    9400 4300
	0    1    1    0   
$EndComp
$Comp
L Device:CP1 C11
U 1 1 5C3C691F
P 9400 3950
F 0 "C11" V 9148 3950 50  0000 C CNN
F 1 "1uF" V 9239 3950 50  0000 C CNN
F 2 "" H 9400 3950 50  0001 C CNN
F 3 "~" H 9400 3950 50  0001 C CNN
	1    9400 3950
	0    1    1    0   
$EndComp
$Comp
L power:GND #PWR?
U 1 1 5C3CA4A1
P 7150 5450
F 0 "#PWR?" H 7150 5200 50  0001 C CNN
F 1 "GND" H 7155 5277 50  0000 C CNN
F 2 "" H 7150 5450 50  0001 C CNN
F 3 "" H 7150 5450 50  0001 C CNN
	1    7150 5450
	1    0    0    -1  
$EndComp
$Comp
L power:GND #PWR?
U 1 1 5C3CA4DE
P 7750 5450
F 0 "#PWR?" H 7750 5200 50  0001 C CNN
F 1 "GND" H 7755 5277 50  0000 C CNN
F 2 "" H 7750 5450 50  0001 C CNN
F 3 "" H 7750 5450 50  0001 C CNN
	1    7750 5450
	1    0    0    -1  
$EndComp
Wire Wire Line
	4550 4300 7150 4300
Wire Wire Line
	7150 4300 7150 4450
$Comp
L Device:R_US R2
U 1 1 5C3CDFA9
P 1750 2750
F 0 "R2" H 1818 2796 50  0000 L CNN
F 1 "22Ω" H 1818 2705 50  0000 L CNN
F 2 "" V 1790 2740 50  0001 C CNN
F 3 "~" H 1750 2750 50  0001 C CNN
	1    1750 2750
	1    0    0    -1  
$EndComp
$Comp
L Device:R_US R1
U 1 1 5C3CE001
P 1650 2750
F 0 "R1" H 1582 2796 50  0000 R CNN
F 1 "22Ω" H 1582 2705 50  0000 R CNN
F 2 "" V 1690 2740 50  0001 C CNN
F 3 "~" H 1650 2750 50  0001 C CNN
	1    1650 2750
	1    0    0    -1  
$EndComp
Wire Wire Line
	1750 2300 1750 2600
Wire Wire Line
	1650 2300 1650 2600
Wire Wire Line
	1650 2900 1650 3300
Wire Wire Line
	1750 2900 1750 3200
$Comp
L Device:R_US R0
U 1 1 5C3D16B6
P 1300 6850
F 0 "R0" V 1095 6850 50  0000 C CNN
F 1 "1MΩ" V 1186 6850 50  0000 C CNN
F 2 "" V 1340 6840 50  0001 C CNN
F 3 "~" H 1300 6850 50  0001 C CNN
	1    1300 6850
	0    1    1    0   
$EndComp
Wire Wire Line
	1000 6850 1150 6850
Wire Wire Line
	1450 6850 1600 6850
$Comp
L Device:R_US R7
U 1 1 5C3D37D6
P 9100 5100
F 0 "R7" H 9032 5054 50  0000 R CNN
F 1 "330Ω" H 9032 5145 50  0000 R CNN
F 2 "" V 9140 5090 50  0001 C CNN
F 3 "~" H 9100 5100 50  0001 C CNN
	1    9100 5100
	-1   0    0    1   
$EndComp
$Comp
L Device:R_US R8
U 1 1 5C3D3A84
P 8750 5100
F 0 "R8" H 8682 5054 50  0000 R CNN
F 1 "330Ω" H 8682 5145 50  0000 R CNN
F 2 "" V 8790 5090 50  0001 C CNN
F 3 "~" H 8750 5100 50  0001 C CNN
	1    8750 5100
	-1   0    0    1   
$EndComp
$Comp
L Device:R_US R5
U 1 1 5C3D3ADC
P 7150 5100
F 0 "R5" H 7082 5054 50  0000 R CNN
F 1 "16Ω" H 7082 5145 50  0000 R CNN
F 2 "" V 7190 5090 50  0001 C CNN
F 3 "~" H 7150 5100 50  0001 C CNN
	1    7150 5100
	-1   0    0    1   
$EndComp
$Comp
L Device:R_US R6
U 1 1 5C3D3B4C
P 7750 5100
F 0 "R6" H 7682 5054 50  0000 R CNN
F 1 "1MΩ" H 7682 5145 50  0000 R CNN
F 2 "" V 7790 5090 50  0001 C CNN
F 3 "~" H 7750 5100 50  0001 C CNN
	1    7750 5100
	-1   0    0    1   
$EndComp
Wire Wire Line
	7750 5250 7750 5450
Wire Wire Line
	7150 5250 7150 5450
Wire Wire Line
	7150 4750 7150 4950
Wire Wire Line
	7750 3950 8300 3950
Wire Wire Line
	7750 3950 7750 4450
Wire Wire Line
	4550 4200 7150 4200
Wire Wire Line
	7150 4200 7150 3950
Wire Wire Line
	7150 3950 7750 3950
Connection ~ 7750 3950
Wire Wire Line
	7150 4300 8300 4300
Connection ~ 7150 4300
$Comp
L power:GND #PWR?
U 1 1 5C3DC0C8
P 8750 5450
F 0 "#PWR?" H 8750 5200 50  0001 C CNN
F 1 "GND" H 8755 5277 50  0000 C CNN
F 2 "" H 8750 5450 50  0001 C CNN
F 3 "" H 8750 5450 50  0001 C CNN
	1    8750 5450
	1    0    0    -1  
$EndComp
$Comp
L power:GND #PWR?
U 1 1 5C3DC105
P 9100 5450
F 0 "#PWR?" H 9100 5200 50  0001 C CNN
F 1 "GND" H 9105 5277 50  0000 C CNN
F 2 "" H 9100 5450 50  0001 C CNN
F 3 "" H 9100 5450 50  0001 C CNN
	1    9100 5450
	1    0    0    -1  
$EndComp
Wire Wire Line
	7750 4750 7750 4950
Wire Wire Line
	8750 5250 8750 5450
Wire Wire Line
	9100 5250 9100 5450
Wire Wire Line
	8750 4950 8750 4300
Wire Wire Line
	8750 4300 8600 4300
Wire Wire Line
	9100 4950 9100 3950
Wire Wire Line
	9100 3950 8600 3950
Wire Wire Line
	8750 4300 9250 4300
Connection ~ 8750 4300
Wire Wire Line
	9100 3950 9250 3950
Connection ~ 9100 3950
Wire Wire Line
	1750 4100 1700 4100
Wire Wire Line
	1700 4100 1700 5400
Wire Wire Line
	1700 5400 1750 5400
$Comp
L Device:C C12
U 1 1 5C3AE3DB
P 1300 4000
F 0 "C12" V 1460 4000 50  0000 C CNN
F 1 "1uF" V 1551 4000 50  0000 C CNN
F 2 "" H 1338 3850 50  0001 C CNN
F 3 "~" H 1300 4000 50  0001 C CNN
	1    1300 4000
	0    1    1    0   
$EndComp
Wire Wire Line
	850  3900 1750 3900
Wire Wire Line
	1450 4000 1750 4000
Wire Wire Line
	850  3900 850  4000
Wire Wire Line
	1150 4000 850  4000
Connection ~ 850  4000
Wire Wire Line
	850  4000 850  4100
$Comp
L Device:CP1 C13
U 1 1 5C3B71ED
P 5050 3900
F 0 "C13" V 5302 3900 50  0000 C CNN
F 1 "10uF" V 5211 3900 50  0000 C CNN
F 2 "" H 5050 3900 50  0001 C CNN
F 3 "~" H 5050 3900 50  0001 C CNN
	1    5050 3900
	0    -1   -1   0   
$EndComp
Wire Wire Line
	4900 3900 4550 3900
Wire Wire Line
	6250 4500 6250 4600
Wire Wire Line
	6250 4400 6250 4500
Connection ~ 6250 4500
Wire Wire Line
	4550 4600 6250 4600
$Comp
L Device:C C14
U 1 1 5C3BEAD5
P 6000 4100
F 0 "C14" V 5950 3900 50  0000 C CNN
F 1 "1uF" V 6050 3900 50  0000 C CNN
F 2 "" H 6038 3950 50  0001 C CNN
F 3 "~" H 6000 4100 50  0001 C CNN
	1    6000 4100
	0    1    1    0   
$EndComp
Wire Wire Line
	6150 4100 6250 4100
Wire Wire Line
	5850 4100 4550 4100
$Comp
L power:GND #PWR?
U 1 1 5C3C22B6
P 6400 4000
F 0 "#PWR?" H 6400 3750 50  0001 C CNN
F 1 "GND" H 6488 3963 50  0000 L CNN
F 2 "" H 6400 4000 50  0001 C CNN
F 3 "" H 6400 4000 50  0001 C CNN
	1    6400 4000
	1    0    0    -1  
$EndComp
Wire Wire Line
	6250 4000 6400 4000
Wire Wire Line
	6250 4000 6250 4100
Wire Wire Line
	6250 4000 4550 4000
Connection ~ 6250 4000
Wire Wire Line
	6400 3900 6400 4000
Wire Wire Line
	5200 3900 6400 3900
Connection ~ 6400 4000
$Comp
L Device:C C15
U 1 1 5C3C776C
P 6000 5000
F 0 "C15" V 5950 4800 50  0000 C CNN
F 1 "1uF" V 6050 4800 50  0000 C CNN
F 2 "" H 6038 4850 50  0001 C CNN
F 3 "~" H 6000 5000 50  0001 C CNN
	1    6000 5000
	0    1    1    0   
$EndComp
Wire Wire Line
	6150 5000 6250 5000
Connection ~ 6250 5000
Wire Wire Line
	6250 4600 6250 5000
Connection ~ 6250 4600
Wire Wire Line
	5850 5000 5100 5000
Wire Wire Line
	1700 5400 1700 5750
Wire Wire Line
	1700 5750 4700 5750
Wire Wire Line
	4700 5750 4700 5000
Connection ~ 1700 5400
Connection ~ 4700 5000
Wire Wire Line
	4700 5000 4550 5000
$Comp
L Device:R_US R8
U 1 1 5C3D113F
P 5100 4800
F 0 "R8" H 5032 4754 50  0000 R CNN
F 1 "1.5kΩ" H 5032 4845 50  0000 R CNN
F 2 "" V 5140 4790 50  0001 C CNN
F 3 "~" H 5100 4800 50  0001 C CNN
	1    5100 4800
	-1   0    0    1   
$EndComp
Wire Wire Line
	5100 5000 5100 4950
Connection ~ 5100 5000
Wire Wire Line
	5100 5000 4700 5000
Wire Wire Line
	5100 4650 5100 4450
Wire Wire Line
	5100 4450 4700 4450
Connection ~ 4700 4450
Wire Wire Line
	4700 4450 4700 4800
$Comp
L Device:R_US R9
U 1 1 5C3D6506
P 1350 5400
F 0 "R9" V 1237 5400 50  0000 C CNN
F 1 "1.5kΩ" V 1146 5400 50  0000 C CNN
F 2 "" V 1390 5390 50  0001 C CNN
F 3 "~" H 1350 5400 50  0001 C CNN
	1    1350 5400
	0    -1   -1   0   
$EndComp
Wire Wire Line
	1700 5400 1500 5400
Wire Wire Line
	1750 5300 1200 5300
Wire Wire Line
	1200 5300 1200 5400
Wire Wire Line
	4550 5100 6250 5100
Wire Wire Line
	6250 5000 6250 5100
Connection ~ 6250 5100
Wire Wire Line
	6250 5100 6250 5200
$EndSCHEMATC
